\relax 
\catcode `"\active 
\babel@aux{brazil}{}
\@writefile{toc}{\contentsline {section}{\numberline {1}Introdução}{1}\protected@file@percent }
\newlabel{sec:introducao}{{1}{1}}
\@writefile{toc}{\contentsline {section}{\numberline {2}Método}{1}\protected@file@percent }
\newlabel{sec:metodo}{{2}{1}}
\@writefile{toc}{\contentsline {section}{\numberline {3}CD-ROMs and Printed Proceedings}{2}\protected@file@percent }
\@writefile{toc}{\contentsline {section}{\numberline {4}Sections and Paragraphs}{2}\protected@file@percent }
\@writefile{toc}{\contentsline {subsection}{\numberline {4.1}Subsections}{2}\protected@file@percent }
\@writefile{toc}{\contentsline {section}{\numberline {5}Figures and Captions}{2}\protected@file@percent }
\newlabel{sec:figs}{{5}{2}}
\@writefile{lof}{\contentsline {figure}{\numberline {1}{\ignorespaces A typical figure\relax }}{2}\protected@file@percent }
\providecommand*\caption@xref[2]{\@setref\relax\@undefined{#1}}
\newlabel{fig:exampleFig1}{{1}{2}}
\citation{knuth:84}
\citation{boulic:91}
\citation{smith:99}
\bibstyle{sbc}
\bibdata{sbc-template}
\@writefile{lof}{\contentsline {figure}{\numberline {2}{\ignorespaces This figure is an example of a figure caption taking more than one line and justified considering margins mentioned in Section~\ref  {sec:figs}.\relax }}{3}\protected@file@percent }
\newlabel{fig:exampleFig2}{{2}{3}}
\@writefile{lot}{\contentsline {table}{\numberline {1}{\ignorespaces Variables to be considered on the evaluation of interaction techniques\relax }}{3}\protected@file@percent }
\newlabel{tab:exTable1}{{1}{3}}
\@writefile{toc}{\contentsline {section}{\numberline {6}Images}{3}\protected@file@percent }
\@writefile{toc}{\contentsline {section}{\numberline {7}References}{3}\protected@file@percent }
